Unit4Assignment
…
# Load Pangaear package from rOpenSci
data = pg_data(doi = '10.1594/PANGAEA.898054')

## Downloading 1 datasets from 10.1594/PANGAEA.898054

## Processing 1 files

# Data Cleaning
# Data is in a subset.
# Data Analogy: Empty Amazon box with data as objects in a box inside the Amazon box.

data[[1]]$data

## # A tibble: 1,630 × 5
##    Event   `Date/Time`         `Depth water [m]` `Temp [°C]` `O2 sat [mg/l]`
##    <chr>   <chr>                           <dbl>       <dbl>           <dbl>
##  1 Bautzen 2016-09-05T00:00:00               0.1        20.9            11.3
##  2 Bautzen 2016-09-05T00:00:00               0.2        20.9            11.3
##  3 Bautzen 2016-09-05T00:00:00               0.3        20.9            11.3
##  4 Bautzen 2016-09-05T00:00:00               0.4        20.9            11.3
##  5 Bautzen 2016-09-05T00:00:00               0.5        20.9            11.3
##  6 Bautzen 2016-09-05T00:00:00               0.6        20.9            11.3
##  7 Bautzen 2016-09-05T00:00:00               0.7        20.9            11.3
##  8 Bautzen 2016-09-05T00:00:00               0.8        20.9            11.3
##  9 Bautzen 2016-09-05T00:00:00               0.9        20.9            11.3
## 10 Bautzen 2016-09-05T00:00:00               1          20.9            11.3
## # ℹ 1,620 more rows

dataDF = data[[1]]$data
dataDF

## # A tibble: 1,630 × 5
##    Event   `Date/Time`         `Depth water [m]` `Temp [°C]` `O2 sat [mg/l]`
##    <chr>   <chr>                           <dbl>       <dbl>           <dbl>
##  1 Bautzen 2016-09-05T00:00:00               0.1        20.9            11.3
##  2 Bautzen 2016-09-05T00:00:00               0.2        20.9            11.3
##  3 Bautzen 2016-09-05T00:00:00               0.3        20.9            11.3
##  4 Bautzen 2016-09-05T00:00:00               0.4        20.9            11.3
##  5 Bautzen 2016-09-05T00:00:00               0.5        20.9            11.3
##  6 Bautzen 2016-09-05T00:00:00               0.6        20.9            11.3
##  7 Bautzen 2016-09-05T00:00:00               0.7        20.9            11.3
##  8 Bautzen 2016-09-05T00:00:00               0.8        20.9            11.3
##  9 Bautzen 2016-09-05T00:00:00               0.9        20.9            11.3
## 10 Bautzen 2016-09-05T00:00:00               1          20.9            11.3
## # ℹ 1,620 more rows

# Changing column names
names(dataDF)[1]

## [1] "Event"

names(dataDF)[4] = "Celsius"
names(dataDF)[1] = "Location"
names(dataDF)[2] = "Date"
names(dataDF)[3] = "WaterDepth"
names(dataDF)[5] = "OxygenLevel"
dataDF

## # A tibble: 1,630 × 5
##    Location Date                WaterDepth Celsius OxygenLevel
##    <chr>    <chr>                    <dbl>   <dbl>       <dbl>
##  1 Bautzen  2016-09-05T00:00:00        0.1    20.9        11.3
##  2 Bautzen  2016-09-05T00:00:00        0.2    20.9        11.3
##  3 Bautzen  2016-09-05T00:00:00        0.3    20.9        11.3
##  4 Bautzen  2016-09-05T00:00:00        0.4    20.9        11.3
##  5 Bautzen  2016-09-05T00:00:00        0.5    20.9        11.3
##  6 Bautzen  2016-09-05T00:00:00        0.6    20.9        11.3
##  7 Bautzen  2016-09-05T00:00:00        0.7    20.9        11.3
##  8 Bautzen  2016-09-05T00:00:00        0.8    20.9        11.3
##  9 Bautzen  2016-09-05T00:00:00        0.9    20.9        11.3
## 10 Bautzen  2016-09-05T00:00:00        1      20.9        11.3
## # ℹ 1,620 more rows

# In this dataset, the temperature, water depth, and oxygen saturation were
# measured in the water resevoirs Bautzen and Rappbode, Germany. 
# The data was used to determine the relationship between water depth measured in meters, the temperature measured in Celsius,
# and the oxygen water saturation measured in miligrams per liter.

dataDF %>% select(Location, WaterDepth)

## # A tibble: 1,630 × 2
##    Location WaterDepth
##    <chr>         <dbl>
##  1 Bautzen         0.1
##  2 Bautzen         0.2
##  3 Bautzen         0.3
##  4 Bautzen         0.4
##  5 Bautzen         0.5
##  6 Bautzen         0.6
##  7 Bautzen         0.7
##  8 Bautzen         0.8
##  9 Bautzen         0.9
## 10 Bautzen         1  
## # ℹ 1,620 more rows

dataDF

## # A tibble: 1,630 × 5
##    Location Date                WaterDepth Celsius OxygenLevel
##    <chr>    <chr>                    <dbl>   <dbl>       <dbl>
##  1 Bautzen  2016-09-05T00:00:00        0.1    20.9        11.3
##  2 Bautzen  2016-09-05T00:00:00        0.2    20.9        11.3
##  3 Bautzen  2016-09-05T00:00:00        0.3    20.9        11.3
##  4 Bautzen  2016-09-05T00:00:00        0.4    20.9        11.3
##  5 Bautzen  2016-09-05T00:00:00        0.5    20.9        11.3
##  6 Bautzen  2016-09-05T00:00:00        0.6    20.9        11.3
##  7 Bautzen  2016-09-05T00:00:00        0.7    20.9        11.3
##  8 Bautzen  2016-09-05T00:00:00        0.8    20.9        11.3
##  9 Bautzen  2016-09-05T00:00:00        0.9    20.9        11.3
## 10 Bautzen  2016-09-05T00:00:00        1      20.9        11.3
## # ℹ 1,620 more rows
…
dataDF

## # A tibble: 1,630 × 5
##    Location Date                WaterDepth Celsius OxygenLevel
##    <chr>    <chr>                    <dbl>   <dbl>       <dbl>
##  1 Bautzen  2016-09-05T00:00:00        0.1    20.9        11.3
##  2 Bautzen  2016-09-05T00:00:00        0.2    20.9        11.3
##  3 Bautzen  2016-09-05T00:00:00        0.3    20.9        11.3
##  4 Bautzen  2016-09-05T00:00:00        0.4    20.9        11.3
##  5 Bautzen  2016-09-05T00:00:00        0.5    20.9        11.3
##  6 Bautzen  2016-09-05T00:00:00        0.6    20.9        11.3
##  7 Bautzen  2016-09-05T00:00:00        0.7    20.9        11.3
##  8 Bautzen  2016-09-05T00:00:00        0.8    20.9        11.3
##  9 Bautzen  2016-09-05T00:00:00        0.9    20.9        11.3
## 10 Bautzen  2016-09-05T00:00:00        1      20.9        11.3
## # ℹ 1,620 more rows
…
dataDF

## # A tibble: 1,630 × 5
##    Location Date                WaterDepth Celsius OxygenLevel
##    <chr>    <chr>                    <dbl>   <dbl>       <dbl>
##  1 Bautzen  2016-09-05T00:00:00        0.1    20.9        11.3
##  2 Bautzen  2016-09-05T00:00:00        0.2    20.9        11.3
##  3 Bautzen  2016-09-05T00:00:00        0.3    20.9        11.3
##  4 Bautzen  2016-09-05T00:00:00        0.4    20.9        11.3
##  5 Bautzen  2016-09-05T00:00:00        0.5    20.9        11.3
##  6 Bautzen  2016-09-05T00:00:00        0.6    20.9        11.3
##  7 Bautzen  2016-09-05T00:00:00        0.7    20.9        11.3
##  8 Bautzen  2016-09-05T00:00:00        0.8    20.9        11.3
##  9 Bautzen  2016-09-05T00:00:00        0.9    20.9        11.3
## 10 Bautzen  2016-09-05T00:00:00        1      20.9        11.3
## # ℹ 1,620 more rows

# next line of code important
datatemp <- dataDF %>% filter(Celsius > 5 & Celsius < 10)
datatemp

## # A tibble: 497 × 5
##    Location Date                WaterDepth Celsius OxygenLevel
##    <chr>    <chr>                    <dbl>   <dbl>       <dbl>
##  1 Rappbode 2016-09-07T00:00:00       13       9.9         5.7
##  2 Rappbode 2016-09-07T00:00:00       13.1     9.8         5.8
##  3 Rappbode 2016-09-07T00:00:00       13.2     9.7         5.9
##  4 Rappbode 2016-09-07T00:00:00       13.3     9.5         6  
##  5 Rappbode 2016-09-07T00:00:00       13.4     9.4         6  
##  6 Rappbode 2016-09-07T00:00:00       13.5     9.4         6.1
##  7 Rappbode 2016-09-07T00:00:00       13.6     9.3         6.2
##  8 Rappbode 2016-09-07T00:00:00       13.7     9.2         6.2
##  9 Rappbode 2016-09-07T00:00:00       13.9     9.1         6.2
## 10 Rappbode 2016-09-07T00:00:00       13.9     9.1         6.3
## # ℹ 487 more rows
…
datatemp

## # A tibble: 497 × 5
##    Location Date                WaterDepth Celsius OxygenLevel
##    <chr>    <chr>                    <dbl>   <dbl>       <dbl>
##  1 Rappbode 2016-09-07T00:00:00       13       9.9         5.7
##  2 Rappbode 2016-09-07T00:00:00       13.1     9.8         5.8
##  3 Rappbode 2016-09-07T00:00:00       13.2     9.7         5.9
##  4 Rappbode 2016-09-07T00:00:00       13.3     9.5         6  
##  5 Rappbode 2016-09-07T00:00:00       13.4     9.4         6  
##  6 Rappbode 2016-09-07T00:00:00       13.5     9.4         6.1
##  7 Rappbode 2016-09-07T00:00:00       13.6     9.3         6.2
##  8 Rappbode 2016-09-07T00:00:00       13.7     9.2         6.2
##  9 Rappbode 2016-09-07T00:00:00       13.9     9.1         6.2
## 10 Rappbode 2016-09-07T00:00:00       13.9     9.1         6.3
## # ℹ 487 more rows
…
dataDF

## # A tibble: 1,630 × 5
##    Location Date                WaterDepth Celsius OxygenLevel
##    <chr>    <chr>                    <dbl>   <dbl>       <dbl>
##  1 Bautzen  2016-09-05T00:00:00        0.1    20.9        11.3
##  2 Bautzen  2016-09-05T00:00:00        0.2    20.9        11.3
##  3 Bautzen  2016-09-05T00:00:00        0.3    20.9        11.3
##  4 Bautzen  2016-09-05T00:00:00        0.4    20.9        11.3
##  5 Bautzen  2016-09-05T00:00:00        0.5    20.9        11.3
##  6 Bautzen  2016-09-05T00:00:00        0.6    20.9        11.3
##  7 Bautzen  2016-09-05T00:00:00        0.7    20.9        11.3
##  8 Bautzen  2016-09-05T00:00:00        0.8    20.9        11.3
##  9 Bautzen  2016-09-05T00:00:00        0.9    20.9        11.3
## 10 Bautzen  2016-09-05T00:00:00        1      20.9        11.3
## # ℹ 1,620 more rows
…
datatemp

## # A tibble: 497 × 5
##    Location Date                WaterDepth Celsius OxygenLevel
##    <chr>    <chr>                    <dbl>   <dbl>       <dbl>
##  1 Rappbode 2016-09-07T00:00:00       13       9.9         5.7
##  2 Rappbode 2016-09-07T00:00:00       13.1     9.8         5.8
##  3 Rappbode 2016-09-07T00:00:00       13.2     9.7         5.9
##  4 Rappbode 2016-09-07T00:00:00       13.3     9.5         6  
##  5 Rappbode 2016-09-07T00:00:00       13.4     9.4         6  
##  6 Rappbode 2016-09-07T00:00:00       13.5     9.4         6.1
##  7 Rappbode 2016-09-07T00:00:00       13.6     9.3         6.2
##  8 Rappbode 2016-09-07T00:00:00       13.7     9.2         6.2
##  9 Rappbode 2016-09-07T00:00:00       13.9     9.1         6.2
## 10 Rappbode 2016-09-07T00:00:00       13.9     9.1         6.3
## # ℹ 487 more rows
…
datatemp

## # A tibble: 497 × 5
##    Location Date                WaterDepth Celsius OxygenLevel
##    <chr>    <chr>                    <dbl>   <dbl>       <dbl>
##  1 Rappbode 2016-09-07T00:00:00       13       9.9         5.7
##  2 Rappbode 2016-09-07T00:00:00       13.1     9.8         5.8
##  3 Rappbode 2016-09-07T00:00:00       13.2     9.7         5.9
##  4 Rappbode 2016-09-07T00:00:00       13.3     9.5         6  
##  5 Rappbode 2016-09-07T00:00:00       13.4     9.4         6  
##  6 Rappbode 2016-09-07T00:00:00       13.5     9.4         6.1
##  7 Rappbode 2016-09-07T00:00:00       13.6     9.3         6.2
##  8 Rappbode 2016-09-07T00:00:00       13.7     9.2         6.2
##  9 Rappbode 2016-09-07T00:00:00       13.9     9.1         6.2
## 10 Rappbode 2016-09-07T00:00:00       13.9     9.1         6.3
## # ℹ 487 more rows
…
dataDF

## # A tibble: 1,630 × 5
##    Location Date                WaterDepth Celsius OxygenLevel
##    <chr>    <chr>                    <dbl>   <dbl>       <dbl>
##  1 Bautzen  2016-09-05T00:00:00        0.1    20.9        11.3
##  2 Bautzen  2016-09-05T00:00:00        0.2    20.9        11.3
##  3 Bautzen  2016-09-05T00:00:00        0.3    20.9        11.3
##  4 Bautzen  2016-09-05T00:00:00        0.4    20.9        11.3
##  5 Bautzen  2016-09-05T00:00:00        0.5    20.9        11.3
##  6 Bautzen  2016-09-05T00:00:00        0.6    20.9        11.3
##  7 Bautzen  2016-09-05T00:00:00        0.7    20.9        11.3
##  8 Bautzen  2016-09-05T00:00:00        0.8    20.9        11.3
##  9 Bautzen  2016-09-05T00:00:00        0.9    20.9        11.3
## 10 Bautzen  2016-09-05T00:00:00        1      20.9        11.3
## # ℹ 1,620 more rows
…
## Getting data from the 2020 decennial Census
## Using the PL 94-171 Redistricting Data Summary File
## Note: 2020 decennial Census data use differential privacy, a technique that
## introduces errors into data to preserve respondent confidentiality.
## ℹ Small counts should be interpreted with caution.
## ℹ See https://www.census.gov/library/fact-sheets/2021/protecting-the-confidentiality-of-the-2020-census-redistricting-data.html for additional guidance.

print(texas_pop_2020)

## # A tibble: 52 × 4
##    GEOID NAME                 variable    value
##    <chr> <chr>                <chr>       <dbl>
##  1 42    Pennsylvania         P1_001N  13002700
##  2 06    California           P1_001N  39538223
##  3 54    West Virginia        P1_001N   1793716
##  4 49    Utah                 P1_001N   3271616
##  5 36    New York             P1_001N  20201249
##  6 11    District of Columbia P1_001N    689545
##  7 02    Alaska               P1_001N    733391
##  8 12    Florida              P1_001N  21538187
##  9 45    South Carolina       P1_001N   5118425
## 10 38    North Dakota         P1_001N    779094
## # ℹ 42 more rows

# Population of all U.S. Counties in 2020
us_county_pop_2020 <- get_decennial(
  geography = "county",
  variables = "P1_001N",
  year = 2020,
  output = "wide"
)

## Getting data from the 2020 decennial Census
## Using the PL 94-171 Redistricting Data Summary File

print(us_county_pop_2020)

## # A tibble: 3,221 × 3
##    GEOID NAME                     P1_001N
##    <chr> <chr>                      <dbl>
##  1 01001 Autauga County, Alabama    58805
##  2 01003 Baldwin County, Alabama   231767
##  3 01005 Barbour County, Alabama    25223
##  4 01007 Bibb County, Alabama       22293
##  5 01009 Blount County, Alabama     59134
##  6 01011 Bullock County, Alabama    10357
##  7 01013 Butler County, Alabama     19051
##  8 01015 Calhoun County, Alabama   116441
##  9 21135 Lewis County, Kentucky     13080
## 10 21137 Lincoln County, Kentucky   24275
## # ℹ 3,211 more rows
…
# Texas Median Age by County
texas_median_age_by_county <- get_acs(
  geography = "county",
  variables = "B01002_001",
  state = "TX",
  year = 2020,
  survey = "acs5")

## Getting data from the 2016-2020 5-year ACS

print(texas_median_age_by_county)

## # A tibble: 254 × 5
##    GEOID NAME                    variable   estimate   moe
##    <chr> <chr>                   <chr>         <dbl> <dbl>
##  1 48001 Anderson County, Texas  B01002_001     39.3   0.5
##  2 48003 Andrews County, Texas   B01002_001     32.3   1.3
##  3 48005 Angelina County, Texas  B01002_001     37.6   0.4
##  4 48007 Aransas County, Texas   B01002_001     50     0.7
##  5 48009 Archer County, Texas    B01002_001     44.2   0.6
##  6 48011 Armstrong County, Texas B01002_001     41.7   4.4
##  7 48013 Atascosa County, Texas  B01002_001     36     0.4
##  8 48015 Austin County, Texas    B01002_001     40.9   1.6
##  9 48017 Bailey County, Texas    B01002_001     33.7   8.2
## 10 48019 Bandera County, Texas   B01002_001     53.1   0.7
## # ℹ 244 more rows
…
## Getting data from the 2016-2020 5-year ACS

print(marriage_status_by_state)

## # A tibble: 52 × 8
##    GEOID NAME    totalE totalM never_marriedE never_marriedM divorcedE divorcedM
##    <chr> <chr>    <dbl>  <dbl>          <dbl>          <dbl>     <dbl>     <dbl>
##  1 42    Pennsy… 2.67e6  10856        1880193           9626    444745      4489
##  2 06    Califo… 7.85e6  25041        6391307          21112   1188788      9811
##  3 54    West V… 3.86e5   4244         232087           3030     93935      2666
##  4 49    Utah    6.81e5   4673         394657           3408     93461      2280
##  5 36    New Yo… 3.85e6  13758        3136995          12302    565880      6585
##  6 11    Distri… 9.37e4   2417         160732           2337     18982      1061
##  7 02    Alaska  1.52e5   2187         116156           1922     30236      1230
##  8 12    Florida 4.35e6  18299        3000583          13294    970752      9542
##  9 45    South … 1.04e6   7737         708597           5469    189912      3704
## 10 38    North … 1.63e5   2232         113048           1858     27156      1093
## # ℹ 42 more rows
…
## Getting data from the 2016-2020 5-year ACS

print(texas_marriage_status_by_county_2020)

## # A tibble: 254 × 8
##    GEOID NAME          never_marriedE never_marriedM marriedE marriedM divorcedE
##    <chr> <chr>                  <dbl>          <dbl>    <dbl>    <dbl>     <dbl>
##  1 48001 Anderson Cou…          11715            665    12977      807      1209
##  2 48005 Angelina Cou…          10494            602    17558      713       746
##  3 48007 Aransas Coun…           2672            358     5293      470        64
##  4 48011 Armstrong Co…            130             55      504       58         4
##  5 48013 Atascosa Cou…           6020            583    10606      785       394
##  6 48017 Bailey Count…           1014            986     1294     1586       185
##  7 48019 Bandera Coun…           2678            334     5382      483        78
##  8 48023 Baylor Count…            248             76      898      106        38
##  9 48025 Bee County, …           8107            386     6039      434       413
## 10 48029 Bexar County…         317018           3947   351195     4151     17653
## # ℹ 244 more rows
## # ℹ 1 more variable: divorcedM <dbl>
…
