Unit3Assignment
…
# Omitted missing values
FIFA_Players_Filtered2 <- na.omit(FIFA_Players)
is.na(FIFA_Players_Filtered2$Weight)

## logical(0)

# Filters data based on position

# Task 2: Use Ggally and ggpairs() and the dataset you created above above, 
# to plot the categorical variable Position (LM and LF), versus the continuous 
# variables Acceleration and AgilityFIFA_Players_Filtered$Position
FIFA_Players_Filtered <- FIFA_Players %>% filter(Position == 'LM' | Position == 'LF')
FIFA_Players_Filtered

## # A tibble: 1,110 × 88
##     ...1     ID Name         Age Photo Nationality Flag  Overall Potential Club 
##    <dbl>  <dbl> <chr>      <dbl> <chr> <chr>       <chr>   <dbl>     <dbl> <chr>
##  1     5 183277 E. Hazard     27 http… Belgium     http…      91        91 Chel…
##  2    15 211110 P. Dybala     24 http… Argentina   http…      89        94 Juve…
##  3    33 188567 P. Aubame…    29 http… Gabon       http…      88        88 Arse…
##  4    58 208722 S. Mané       26 http… Senegal     http…      86        87 Live…
##  5    65 190483 Douglas C…    27 http… Brazil      http…      86        86 Juve…
##  6    68 188350 M. Reus       29 http… Germany     http…      86        86 Boru…
##  7    76     41 Iniesta       34 http… Spain       http…      86        86 Viss…
##  8    86 193747 Koke          26 http… Spain       http…      85        86 Atlé…
##  9    94 184267 Y. Brahimi    28 http… Algeria     http…      85        85 FC P…
## 10    97 181458 I. Peri_i_    29 http… Croatia     http…      85        85 Inter
## # ℹ 1,100 more rows
## # ℹ 78 more variables: `Club Logo` <chr>, Value <chr>, Wage <chr>,
## #   Special <dbl>, `Preferred Foot` <chr>, `International Reputation` <dbl>,
## #   `Weak Foot` <dbl>, `Skill Moves` <dbl>, `Work Rate` <chr>,
## #   `Body Type` <chr>, `Real Face` <chr>, Position <chr>,
## #   `Jersey Number` <dbl>, Joined <chr>, `Loaned From` <chr>,
## #   `Contract Valid Until` <chr>, Height <chr>, Weight <dbl>, ST <chr>, …
…
# Part 2:
# Select/create at least 2 categorical variables and select two continuous variables 
# and perform an EDA.  Also, at least one of the categorical variables should be created
# from a continuous variable (using the cut() function).   

# Need to complete: Also, at least one of the categorical variables should be created
# from a continuous variable (using the cut() function).   

# Filter Data
FIFA_Players_Filtered3 <- FIFA_Players %>% filter(`Body Type` == "Normal" | `Body Type` == "Stocky" | `Body Type` == "Lean")
FIFA_Players_Filtered3

## # A tibble: 18,152 × 88
##     ...1     ID Name         Age Photo Nationality Flag  Overall Potential Club 
##    <dbl>  <dbl> <chr>      <dbl> <chr> <chr>       <chr>   <dbl>     <dbl> <chr>
##  1     3 193080 De Gea        27 http… Spain       http…      91        93 Manc…
##  2     4 192985 K. De Bru…    27 http… Belgium     http…      91        92 Manc…
##  3     5 183277 E. Hazard     27 http… Belgium     http…      91        91 Chel…
##  4     6 177003 L. Modri_     32 http… Croatia     http…      91        91 Real…
##  5     7 176580 L. Suárez     31 http… Uruguay     http…      91        91 FC B…
##  6     8 155862 Sergio Ra…    32 http… Spain       http…      91        91 Real…
##  7     9 200389 J. Oblak      25 http… Slovenia    http…      90        93 Atlé…
##  8    10 188545 R. Lewand…    29 http… Poland      http…      90        90 FC B…
##  9    11 182521 T. Kroos      28 http… Germany     http…      90        90 Real…
## 10    12 182493 D. Godín      32 http… Uruguay     http…      90        90 Atlé…
## # ℹ 18,142 more rows
## # ℹ 78 more variables: `Club Logo` <chr>, Value <chr>, Wage <chr>,
## #   Special <dbl>, `Preferred Foot` <chr>, `International Reputation` <dbl>,
## #   `Weak Foot` <dbl>, `Skill Moves` <dbl>, `Work Rate` <chr>,
## #   `Body Type` <chr>, `Real Face` <chr>, Position <chr>,
## #   `Jersey Number` <dbl>, Joined <chr>, `Loaned From` <chr>,
## #   `Contract Valid Until` <chr>, Height <chr>, Weight <dbl>, ST <chr>, …
…
